{
    "/questionnaires/{questionnaire_id}/questions/{question_id}/answers/": {
        "get": {
            "operationId": 1,
            "summary": "",
            "description": "Get list gets all answers from question",
            "parameters": [
                {
                    "description": "",
                    "in": "path",
                    "name": "questionnaire_id",
                    "required": true,
                    "schema": {
                        "type": "integer"
                    }
                },
                {
                    "description": "",
                    "in": "path",
                    "name": "question_id",
                    "required": true,
                    "schema": {
                        "type": "integer"
                    }
                },
                {
                    "description": "Auth token",
                    "in": "header",
                    "name": "Authentication",
                    "example": "Bearer ****************",
                    "required": true,
                    "schema": {
                        "type": "string"
                    }
                },
                {
                    "description": "Language letter code (depending on setup: en, es, de, ar, eng, spa, es_AR, en_US)",
                    "in": "header",
                    "name": "Accept-Language",
                    "example": "en",
                    "required": false,
                    "schema": {
                        "type": "string"
                    }
                }
            ],
            "tags": [
                "Answers"
            ],
            "responses": {
                "200": {
                    "description": "OK",
                    "content": {
                        "application/json": {
                            "schema": {
                                "type": "object",
                                "description": "Get list gets all answers from question",
                                "properties": {
                                    "data": {
                                        "type": "array",
                                        "items": {
                                            "type": "object",
                                            "properties": {
                                                "id": {
                                                    "type": "number",
                                                    "example": 1
                                                },
                                                "question_id": {
                                                    "type": "number",
                                                    "example": 1
                                                },
                                                "answer": {
                                                    "type": "string",
                                                    "example": "Yes, always"
                                                },
                                                "weight": {
                                                    "type": "number",
                                                    "example": 2
                                                }
                                            }
                                        }
                                    }
                                }
                            }
                        }
                    }
                }
            },
            "security": [
                {
                    "bearerAuth": []
                }
            ]
        },
        "post": {
            "operationId": 2,
            "summary": "",
            "description": "Add new seller token forbidden exception",
            "parameters": [
                {
                    "description": "",
                    "in": "path",
                    "name": "questionnaire_id",
                    "required": true,
                    "schema": {
                        "type": "integer"
                    }
                },
                {
                    "description": "",
                    "in": "path",
                    "name": "question_id",
                    "required": true,
                    "schema": {
                        "type": "integer"
                    }
                },
                {
                    "description": "Language letter code (depending on setup: en, es, de, ar, eng, spa, es_AR, en_US)",
                    "in": "header",
                    "name": "Accept-Language",
                    "example": "en",
                    "required": false,
                    "schema": {
                        "type": "string"
                    }
                },
                {
                    "description": "Auth token",
                    "in": "header",
                    "name": "Authentication",
                    "example": "Bearer ****************",
                    "required": true,
                    "schema": {
                        "type": "string"
                    }
                }
            ],
            "tags": [
                "Answers"
            ],
            "responses": {
                "403": {
                    "description": "Forbidden",
                    "content": {
                        "application/json": {
                            "schema": {
                                "type": "object",
                                "description": "Add new seller token forbidden exception",
                                "properties": {
                                    "error": {
                                        "type": "string",
                                        "example": "Forbidden"
                                    },
                                    "code": {
                                        "type": "number",
                                        "example": 403
                                    }
                                }
                            }
                        }
                    }
                },
                "400": {
                    "description": "Bad Request",
                    "content": {
                        "application/json": {
                            "schema": {
                                "type": "object",
                                "description": "Add new empty answer exception",
                                "properties": {
                                    "error": {
                                        "type": "string",
                                        "example": "Validation error"
                                    },
                                    "code": {
                                        "type": "number",
                                        "example": 400
                                    },
                                    "error_fields": {
                                        "type": "object",
                                        "properties": {
                                            "answer": {
                                                "type": "object",
                                                "properties": {
                                                    "_empty": {
                                                        "type": "string",
                                                        "example": "This field cannot be left empty"
                                                    }
                                                }
                                            },
                                            "weight": {
                                                "type": "object",
                                                "properties": {
                                                    "_required": {
                                                        "type": "string",
                                                        "example": "This field is required"
                                                    }
                                                }
                                            }
                                        }
                                    }
                                }
                            }
                        }
                    }
                },
                "200": {
                    "description": "OK",
                    "content": {
                        "application/json": {
                            "schema": {
                                "type": "object",
                                "description": "Add new creates new answer",
                                "properties": {
                                    "data": {
                                        "type": "object",
                                        "properties": {
                                            "id": {
                                                "type": "number",
                                                "example": 7
                                            },
                                            "question_id": {
                                                "type": "number",
                                                "example": 1
                                            },
                                            "answer": {
                                                "type": "string",
                                                "example": "Yes"
                                            },
                                            "weight": {
                                                "type": "number",
                                                "example": 0
                                            }
                                        }
                                    }
                                }
                            }
                        }
                    }
                }
            },
            "requestBody": {
                "description": "",
                "content": {
                    "application/json": {
                        "schema": {
                            "type": "object",
                            "description": "Add new creates new answer",
                            "properties": {
                                "answer": {
                                    "type": "string",
                                    "example": "Yes"
                                },
                                "weight": {
                                    "type": "number",
                                    "example": 0
                                }
                            }
                        }
                    }
                }
            }
        }
    },
    "/questionnaires/{questionnaire_id}/questions/{question_id}/answers/{entity_id}": {
        "patch": {
            "operationId": 3,
            "summary": "",
            "description": "Edit edits answer",
            "parameters": [
                {
                    "description": "",
                    "in": "path",
                    "name": "questionnaire_id",
                    "required": true,
                    "schema": {
                        "type": "integer"
                    }
                },
                {
                    "description": "",
                    "in": "path",
                    "name": "question_id",
                    "required": true,
                    "schema": {
                        "type": "integer"
                    }
                },
                {
                    "description": "",
                    "in": "path",
                    "name": "entity_id",
                    "required": true,
                    "schema": {
                        "type": "integer"
                    }
                },
                {
                    "description": "Auth token",
                    "in": "header",
                    "name": "Authentication",
                    "example": "Bearer ****************",
                    "required": true,
                    "schema": {
                        "type": "string"
                    }
                },
                {
                    "description": "Language letter code (depending on setup: en, es, de, ar, eng, spa, es_AR, en_US)",
                    "in": "header",
                    "name": "Accept-Language",
                    "example": "en",
                    "required": false,
                    "schema": {
                        "type": "string"
                    }
                }
            ],
            "tags": [
                "Answers"
            ],
            "responses": {
                "200": {
                    "description": "OK",
                    "content": {
                        "application/json": {
                            "schema": {
                                "type": "object",
                                "description": "Edit edits answer",
                                "properties": {
                                    "data": {
                                        "type": "object",
                                        "properties": {
                                            "id": {
                                                "type": "number",
                                                "example": 1
                                            },
                                            "question_id": {
                                                "type": "number",
                                                "example": 1
                                            },
                                            "answer": {
                                                "type": "string",
                                                "example": "no"
                                            },
                                            "weight": {
                                                "type": "number",
                                                "example": 10
                                            }
                                        }
                                    }
                                }
                            }
                        }
                    }
                },
                "400": {
                    "description": "Bad Request",
                    "content": {
                        "application/json": {
                            "schema": {
                                "type": "object",
                                "description": "Patch should throw bad request exception when no body provided",
                                "properties": {
                                    "error": {
                                        "type": "string",
                                        "example": "Bad Request"
                                    },
                                    "code": {
                                        "type": "number",
                                        "example": 400
                                    }
                                }
                            }
                        }
                    }
                }
            },
            "security": [
                {
                    "bearerAuth": []
                }
            ],
            "requestBody": {
                "description": "",
                "content": {
                    "application/json": {
                        "schema": {
                            "type": "object",
                            "description": "Edit edits answer",
                            "properties": {
                                "answer": {
                                    "type": "string",
                                    "example": "no"
                                },
                                "weight": {
                                    "type": "number",
                                    "example": 10
                                }
                            }
                        }
                    }
                }
            }
        },
        "delete": {
            "operationId": 4,
            "summary": "",
            "description": "Delete deletes answer",
            "parameters": [
                {
                    "description": "",
                    "in": "path",
                    "name": "questionnaire_id",
                    "required": true,
                    "schema": {
                        "type": "integer"
                    }
                },
                {
                    "description": "",
                    "in": "path",
                    "name": "question_id",
                    "required": true,
                    "schema": {
                        "type": "integer"
                    }
                },
                {
                    "description": "",
                    "in": "path",
                    "name": "entity_id",
                    "required": true,
                    "schema": {
                        "type": "integer"
                    }
                },
                {
                    "description": "Auth token",
                    "in": "header",
                    "name": "Authentication",
                    "example": "Bearer ****************",
                    "required": true,
                    "schema": {
                        "type": "string"
                    }
                },
                {
                    "description": "Language letter code (depending on setup: en, es, de, ar, eng, spa, es_AR, en_US)",
                    "in": "header",
                    "name": "Accept-Language",
                    "example": "en",
                    "required": false,
                    "schema": {
                        "type": "string"
                    }
                }
            ],
            "tags": [
                "Answers"
            ],
            "responses": {
                "204": {
                    "description": "No content. Successfully deleted."
                },
                "400": {
                    "description": "Bad Request",
                    "content": {
                        "application/json": {
                            "schema": {
                                "type": "object",
                                "description": "Delete should throw bad request exception when no id provided",
                                "properties": {
                                    "error": {
                                        "type": "string",
                                        "example": "Bad Request"
                                    },
                                    "code": {
                                        "type": "number",
                                        "example": 400
                                    }
                                }
                            }
                        }
                    }
                }
            },
            "security": [
                {
                    "bearerAuth": []
                }
            ]
        }
    }
}
