{
    "/fields/": {
        "get": {
            "operationId": 1,
            "summary": "",
            "description": "Get list gets all fields",
            "parameters": [
                {
                    "description": "Auth token",
                    "in": "header",
                    "name": "Authentication",
                    "example": "Bearer ****************",
                    "required": true,
                    "schema": {
                        "type": "string"
                    }
                },
                {
                    "description": "Language letter code (depending on setup: en, es, de, ar, eng, spa, es_AR, en_US)",
                    "in": "header",
                    "name": "Accept-Language",
                    "example": "en",
                    "required": false,
                    "schema": {
                        "type": "string"
                    }
                }
            ],
            "tags": [
                "Fields"
            ],
            "responses": {
                "200": {
                    "description": "OK",
                    "content": {
                        "application/json": {
                            "schema": {
                                "type": "object",
                                "description": "Get list gets all fields",
                                "properties": {
                                    "data": {
                                        "type": "array",
                                        "items": {
                                            "type": "object",
                                            "properties": {
                                                "id": {
                                                    "type": "number",
                                                    "example": 1
                                                },
                                                "title": {
                                                    "type": "string",
                                                    "example": "Core"
                                                },
                                                "slug": {
                                                    "type": "string",
                                                    "example": "core"
                                                },
                                                "icon": {
                                                    "type": "string",
                                                    "example": "atom"
                                                },
                                                "position": {
                                                    "type": "number",
                                                    "example": 1
                                                }
                                            }
                                        }
                                    }
                                }
                            }
                        }
                    }
                }
            },
            "security": [
                {
                    "bearerAuth": []
                }
            ]
        }
    },
    "/fields/{entity_id}": {
        "get": {
            "operationId": 2,
            "summary": "",
            "description": "Get get single field",
            "parameters": [
                {
                    "description": "",
                    "in": "path",
                    "name": "entity_id",
                    "required": true,
                    "schema": {
                        "type": "integer"
                    }
                },
                {
                    "description": "Auth token",
                    "in": "header",
                    "name": "Authentication",
                    "example": "Bearer ****************",
                    "required": true,
                    "schema": {
                        "type": "string"
                    }
                },
                {
                    "description": "Language letter code (depending on setup: en, es, de, ar, eng, spa, es_AR, en_US)",
                    "in": "header",
                    "name": "Accept-Language",
                    "example": "en",
                    "required": false,
                    "schema": {
                        "type": "string"
                    }
                }
            ],
            "tags": [
                "Fields"
            ],
            "responses": {
                "200": {
                    "description": "OK",
                    "content": {
                        "application/json": {
                            "schema": {
                                "type": "object",
                                "description": "Get get single field",
                                "properties": {
                                    "data": {
                                        "type": "object",
                                        "properties": {
                                            "id": {
                                                "type": "number",
                                                "example": 1
                                            },
                                            "title": {
                                                "type": "string",
                                                "example": "Core"
                                            },
                                            "slug": {
                                                "type": "string",
                                                "example": "core"
                                            },
                                            "icon": {
                                                "type": "string",
                                                "example": "atom"
                                            },
                                            "position": {
                                                "type": "number",
                                                "example": 1
                                            }
                                        }
                                    }
                                }
                            }
                        }
                    }
                }
            },
            "security": [
                {
                    "bearerAuth": []
                }
            ]
        }
    }
}