{
    "/questionnaires/{questionnaire_id}/users/{userID}/initiatives/": {
        "get": {
            "operationId": 1,
            "summary": "",
            "description": "Get list gets all last initiatives users",
            "parameters": [
                {
                    "description": "",
                    "in": "path",
                    "name": "questionnaire_id",
                    "required": true,
                    "schema": {
                        "type": "integer"
                    }
                },
                {
                    "description": "",
                    "in": "path",
                    "name": "userID",
                    "required": true,
                    "schema": {
                        "type": "integer"
                    }
                },
                {
                    "description": "",
                    "in": "query",
                    "name": "questionnaire_id",
                    "example": "1",
                    "required": false,
                    "schema": {
                        "type": "string"
                    }
                },
                {
                    "description": "",
                    "in": "query",
                    "name": "date:gte",
                    "example": "2021-01-01T00:00:00 00:00",
                    "required": false,
                    "schema": {
                        "type": "string"
                    }
                },
                {
                    "description": "",
                    "in": "query",
                    "name": "date:lte",
                    "example": "2022-01-01T00:00:00 00:00",
                    "required": false,
                    "schema": {
                        "type": "string"
                    }
                },
                {
                    "description": "Auth token",
                    "in": "header",
                    "name": "Authentication",
                    "example": "Bearer ****************",
                    "required": true,
                    "schema": {
                        "type": "string"
                    }
                },
                {
                    "description": "Language letter code (depending on setup: en, es, de, ar, eng, spa, es_AR, en_US)",
                    "in": "header",
                    "name": "Accept-Language",
                    "example": "en",
                    "required": false,
                    "schema": {
                        "type": "string"
                    }
                }
            ],
            "tags": [
                "InitiativesUsers"
            ],
            "responses": {
                "200": {
                    "description": "OK",
                    "content": {
                        "application/json": {
                            "schema": {
                                "type": "object",
                                "description": "Get list gets all last initiatives users",
                                "properties": {
                                    "data": {
                                        "type": "array",
                                        "items": {
                                            "type": "object",
                                            "properties": {
                                                "id": {
                                                    "type": "number",
                                                    "example": 1
                                                },
                                                "initiative_id": {
                                                    "type": "number",
                                                    "example": 1
                                                },
                                                "user_id": {
                                                    "type": "number",
                                                    "example": 3
                                                },
                                                "questionnaire_id": {
                                                    "type": "number",
                                                    "example": 1
                                                },
                                                "manager_id": {
                                                    "type": "string",
                                                    "example": ""
                                                },
                                                "submission_id": {
                                                    "type": "number",
                                                    "example": 2
                                                },
                                                "score": {
                                                    "type": "number",
                                                    "example": 100
                                                },
                                                "max_score": {
                                                    "type": "number",
                                                    "example": 100
                                                },
                                                "percentage": {
                                                    "type": "number",
                                                    "example": 100
                                                },
                                                "state": {
                                                    "type": "string",
                                                    "example": ""
                                                },
                                                "is_flagged": {
                                                    "type": "boolean",
                                                    "example": false
                                                },
                                                "created": {
                                                    "type": "string",
                                                    "example": "2021-03-09T10:00:00+00:00"
                                                },
                                                "modified": {
                                                    "type": "string",
                                                    "example": "2021-03-01T10:00:00+00:00"
                                                },
                                                "initiative": {
                                                    "type": "object",
                                                    "properties": {
                                                        "id": {
                                                            "type": "number",
                                                            "example": 1
                                                        },
                                                        "title": {
                                                            "type": "string",
                                                            "example": "SCRUM 101 Course"
                                                        },
                                                        "description": {
                                                            "type": "string",
                                                            "example": "Description of the course"
                                                        },
                                                        "created": {
                                                            "type": "string",
                                                            "example": "2021-03-01T10:00:00+00:00"
                                                        },
                                                        "modified": {
                                                            "type": "string",
                                                            "example": "2021-03-01T10:00:00+00:00"
                                                        },
                                                        "tags_list": {
                                                            "type": "array",
                                                            "items": {
                                                                "type": "string",
                                                                "example": "Agile methodologies"
                                                            }
                                                        }
                                                    }
                                                },
                                                "combined_amount": {
                                                    "type": "number",
                                                    "example": 1
                                                }
                                            }
                                        }
                                    }
                                }
                            }
                        }
                    }
                }
            },
            "security": [
                {
                    "bearerAuth": []
                }
            ]
        },
        "post": {
            "operationId": 2,
            "summary": "",
            "description": "Add new creates many initiatives users deletes old ones",
            "parameters": [
                {
                    "description": "",
                    "in": "path",
                    "name": "questionnaire_id",
                    "required": true,
                    "schema": {
                        "type": "integer"
                    }
                },
                {
                    "description": "",
                    "in": "path",
                    "name": "userID",
                    "required": true,
                    "schema": {
                        "type": "integer"
                    }
                },
                {
                    "description": "Auth token",
                    "in": "header",
                    "name": "Authentication",
                    "example": "Bearer ****************",
                    "required": true,
                    "schema": {
                        "type": "string"
                    }
                },
                {
                    "description": "Language letter code (depending on setup: en, es, de, ar, eng, spa, es_AR, en_US)",
                    "in": "header",
                    "name": "Accept-Language",
                    "example": "en",
                    "required": false,
                    "schema": {
                        "type": "string"
                    }
                }
            ],
            "tags": [
                "InitiativesUsers"
            ],
            "responses": {
                "200": {
                    "description": "OK",
                    "content": {
                        "application/json": {
                            "schema": {
                                "type": "object",
                                "description": "Add new creates many initiatives users deletes old ones",
                                "properties": {
                                    "data": {
                                        "type": "array",
                                        "items": {
                                            "type": "object",
                                            "properties": {
                                                "id": {
                                                    "type": "number",
                                                    "example": 4
                                                },
                                                "initiative_id": {
                                                    "type": "number",
                                                    "example": 1
                                                },
                                                "user_id": {
                                                    "type": "number",
                                                    "example": 3
                                                },
                                                "questionnaire_id": {
                                                    "type": "number",
                                                    "example": 1
                                                },
                                                "manager_id": {
                                                    "type": "string",
                                                    "example": ""
                                                },
                                                "submission_id": {
                                                    "type": "string",
                                                    "example": ""
                                                },
                                                "score": {
                                                    "type": "number",
                                                    "example": 2
                                                },
                                                "max_score": {
                                                    "type": "number",
                                                    "example": 10
                                                },
                                                "percentage": {
                                                    "type": "number",
                                                    "example": 20
                                                },
                                                "state": {
                                                    "type": "string",
                                                    "example": ""
                                                },
                                                "is_flagged": {
                                                    "type": "boolean",
                                                    "example": false
                                                },
                                                "created": {
                                                    "type": "string",
                                                    "example": "2021-03-10T10:00:00+00:00"
                                                },
                                                "modified": {
                                                    "type": "string",
                                                    "example": "2024-07-01T14:53:13+00:00"
                                                },
                                                "initiative": {
                                                    "type": "object",
                                                    "properties": {
                                                        "id": {
                                                            "type": "number",
                                                            "example": 1
                                                        },
                                                        "title": {
                                                            "type": "string",
                                                            "example": "SCRUM 101 Course"
                                                        },
                                                        "description": {
                                                            "type": "string",
                                                            "example": "Description of the course"
                                                        },
                                                        "created": {
                                                            "type": "string",
                                                            "example": "2021-03-01T10:00:00+00:00"
                                                        },
                                                        "modified": {
                                                            "type": "string",
                                                            "example": "2021-03-01T10:00:00+00:00"
                                                        },
                                                        "tags_list": {
                                                            "type": "array",
                                                            "items": {
                                                                "type": "string",
                                                                "example": "Agile methodologies"
                                                            }
                                                        }
                                                    }
                                                },
                                                "combined_amount": {
                                                    "type": "number",
                                                    "example": 1
                                                }
                                            }
                                        }
                                    }
                                }
                            }
                        }
                    }
                }
            },
            "security": [
                {
                    "bearerAuth": []
                }
            ],
            "requestBody": {
                "description": "Request body can match to any of the 3 provided schemas",
                "content": {
                    "application/json": {
                        "schema": {
                            "oneOf": [
                                {
                                    "type": "array",
                                    "description": "Add new creates many initiatives users deletes old ones",
                                    "items": {
                                        "type": "object",
                                        "properties": {
                                            "initiative_id": {
                                                "type": "number",
                                                "example": 1
                                            },
                                            "score": {
                                                "type": "number",
                                                "example": 2
                                            },
                                            "max_score": {
                                                "type": "number",
                                                "example": 10
                                            },
                                            "created": {
                                                "type": "string",
                                                "example": "2021-03-10T10:00:00+00:00"
                                            }
                                        }
                                    }
                                },
                                {
                                    "type": "object",
                                    "description": "Add new with user info create submission",
                                    "properties": {
                                        "initiatives": {
                                            "type": "array",
                                            "items": {
                                                "type": "object",
                                                "properties": {
                                                    "initiative_id": {
                                                        "type": "number",
                                                        "example": 1
                                                    },
                                                    "score": {
                                                        "type": "number",
                                                        "example": 2
                                                    },
                                                    "max_score": {
                                                        "type": "number",
                                                        "example": 10
                                                    },
                                                    "created": {
                                                        "type": "string",
                                                        "example": "2021-03-10T10:00:00+00:00"
                                                    }
                                                }
                                            }
                                        },
                                        "user": {
                                            "type": "object",
                                            "properties": {
                                                "job_position": {
                                                    "type": "string",
                                                    "example": "Manager"
                                                },
                                                "location": {
                                                    "type": "string",
                                                    "example": "Vigo"
                                                },
                                                "occupation": {
                                                    "type": "string",
                                                    "example": "ESCO position"
                                                },
                                                "working_times": {
                                                    "type": "string",
                                                    "example": "Full time"
                                                },
                                                "home_office": {
                                                    "type": "number",
                                                    "example": 1
                                                }
                                            }
                                        }
                                    }
                                },
                                {
                                    "type": "array",
                                    "description": "Add new manager responds for other user delete only other initiatives users with same manager id user and questionnaire",
                                    "items": {
                                        "type": "object",
                                        "properties": {
                                            "initiative_id": {
                                                "type": "number",
                                                "example": 1
                                            },
                                            "score": {
                                                "type": "number",
                                                "example": 2
                                            },
                                            "max_score": {
                                                "type": "number",
                                                "example": 10
                                            },
                                            "created": {
                                                "type": "string",
                                                "example": "2021-03-10T10:00:00+00:00"
                                            }
                                        }
                                    }
                                }
                            ]
                        }
                    }
                }
            }
        }
    },
    "/questionnaires/{questionnaire_id}/users/{userID}/initiatives/{entity_id}": {
        "patch": {
            "operationId": 3,
            "summary": "",
            "description": "Edit edits state initiatives users",
            "parameters": [
                {
                    "description": "",
                    "in": "path",
                    "name": "questionnaire_id",
                    "required": true,
                    "schema": {
                        "type": "integer"
                    }
                },
                {
                    "description": "",
                    "in": "path",
                    "name": "userID",
                    "required": true,
                    "schema": {
                        "type": "integer"
                    }
                },
                {
                    "description": "",
                    "in": "path",
                    "name": "entity_id",
                    "required": true,
                    "schema": {
                        "type": "integer"
                    }
                },
                {
                    "description": "Auth token",
                    "in": "header",
                    "name": "Authentication",
                    "example": "Bearer ****************",
                    "required": true,
                    "schema": {
                        "type": "string"
                    }
                },
                {
                    "description": "Language letter code (depending on setup: en, es, de, ar, eng, spa, es_AR, en_US)",
                    "in": "header",
                    "name": "Accept-Language",
                    "example": "en",
                    "required": false,
                    "schema": {
                        "type": "string"
                    }
                }
            ],
            "tags": [
                "InitiativesUsers"
            ],
            "responses": {
                "200": {
                    "description": "OK",
                    "content": {
                        "application/json": {
                            "schema": {
                                "type": "object",
                                "description": "Edit edits state initiatives users",
                                "properties": {
                                    "data": {
                                        "type": "object",
                                        "properties": {
                                            "id": {
                                                "type": "number",
                                                "example": 1
                                            },
                                            "initiative_id": {
                                                "type": "number",
                                                "example": 1
                                            },
                                            "user_id": {
                                                "type": "number",
                                                "example": 3
                                            },
                                            "questionnaire_id": {
                                                "type": "number",
                                                "example": 1
                                            },
                                            "manager_id": {
                                                "type": "string",
                                                "example": ""
                                            },
                                            "submission_id": {
                                                "type": "number",
                                                "example": 2
                                            },
                                            "score": {
                                                "type": "number",
                                                "example": 100
                                            },
                                            "max_score": {
                                                "type": "number",
                                                "example": 100
                                            },
                                            "percentage": {
                                                "type": "number",
                                                "example": 100
                                            },
                                            "state": {
                                                "type": "string",
                                                "example": "in_progress"
                                            },
                                            "is_flagged": {
                                                "type": "boolean",
                                                "example": false
                                            },
                                            "created": {
                                                "type": "string",
                                                "example": "2021-03-09T10:00:00+00:00"
                                            },
                                            "modified": {
                                                "type": "string",
                                                "example": "2024-07-01T14:53:15+00:00"
                                            },
                                            "initiative": {
                                                "type": "object",
                                                "properties": {
                                                    "id": {
                                                        "type": "number",
                                                        "example": 1
                                                    },
                                                    "title": {
                                                        "type": "string",
                                                        "example": "SCRUM 101 Course"
                                                    },
                                                    "description": {
                                                        "type": "string",
                                                        "example": "Description of the course"
                                                    },
                                                    "created": {
                                                        "type": "string",
                                                        "example": "2021-03-01T10:00:00+00:00"
                                                    },
                                                    "modified": {
                                                        "type": "string",
                                                        "example": "2021-03-01T10:00:00+00:00"
                                                    },
                                                    "tags_list": {
                                                        "type": "array",
                                                        "items": {
                                                            "type": "object"
                                                        }
                                                    }
                                                }
                                            },
                                            "combined_amount": {
                                                "type": "number",
                                                "example": 1
                                            }
                                        }
                                    }
                                }
                            }
                        }
                    }
                },
                "400": {
                    "description": "Bad Request",
                    "content": {
                        "application/json": {
                            "schema": {
                                "type": "object",
                                "description": "Edit state unset bad request",
                                "properties": {
                                    "error": {
                                        "type": "string",
                                        "example": "Bad Request"
                                    },
                                    "code": {
                                        "type": "number",
                                        "example": 400
                                    }
                                }
                            }
                        }
                    }
                }
            },
            "security": [
                {
                    "bearerAuth": []
                }
            ],
            "requestBody": {
                "description": "Request body can match to any of the 3 provided schemas",
                "content": {
                    "application/json": {
                        "schema": {
                            "oneOf": [
                                {
                                    "type": "object",
                                    "description": "Edit edits state initiatives users",
                                    "properties": {
                                        "state": {
                                            "type": "string",
                                            "example": "in_progress"
                                        }
                                    }
                                },
                                {
                                    "type": "object",
                                    "description": "Edit edits is flagged initiatives users",
                                    "properties": {
                                        "is_flagged": {
                                            "type": "number",
                                            "example": 1
                                        }
                                    }
                                },
                                {
                                    "type": "object",
                                    "description": "Edit set null state",
                                    "properties": {
                                        "state": {
                                            "type": "string",
                                            "example": ""
                                        }
                                    }
                                }
                            ]
                        }
                    }
                }
            }
        },
        "delete": {
            "operationId": 4,
            "summary": "",
            "description": "Delete deletes initiatives users",
            "parameters": [
                {
                    "description": "",
                    "in": "path",
                    "name": "questionnaire_id",
                    "required": true,
                    "schema": {
                        "type": "integer"
                    }
                },
                {
                    "description": "",
                    "in": "path",
                    "name": "userID",
                    "required": true,
                    "schema": {
                        "type": "integer"
                    }
                },
                {
                    "description": "",
                    "in": "path",
                    "name": "entity_id",
                    "required": true,
                    "schema": {
                        "type": "integer"
                    }
                },
                {
                    "description": "Auth token",
                    "in": "header",
                    "name": "Authentication",
                    "example": "Bearer ****************",
                    "required": true,
                    "schema": {
                        "type": "string"
                    }
                },
                {
                    "description": "Language letter code (depending on setup: en, es, de, ar, eng, spa, es_AR, en_US)",
                    "in": "header",
                    "name": "Accept-Language",
                    "example": "en",
                    "required": false,
                    "schema": {
                        "type": "string"
                    }
                }
            ],
            "tags": [
                "InitiativesUsers"
            ],
            "responses": {
                "204": {
                    "description": "No content. Successfully deleted."
                },
                "400": {
                    "description": "Bad Request",
                    "content": {
                        "application/json": {
                            "schema": {
                                "type": "object",
                                "description": "Delete should throw bad request exception when no id provided",
                                "properties": {
                                    "error": {
                                        "type": "string",
                                        "example": "Bad Request"
                                    },
                                    "code": {
                                        "type": "number",
                                        "example": 400
                                    }
                                }
                            }
                        }
                    }
                }
            },
            "security": [
                {
                    "bearerAuth": []
                }
            ]
        }
    }
}
