{
    "/initiatives/": {
        "get": {
            "operationId": 1,
            "summary": "",
            "description": "Get list gets all initiatives",
            "parameters": [
                {
                    "description": "Auth token",
                    "in": "header",
                    "name": "Authentication",
                    "example": "Bearer ****************",
                    "required": true,
                    "schema": {
                        "type": "string"
                    }
                },
                {
                    "description": "Language letter code (depending on setup: en, es, de, ar, eng, spa, es_AR, en_US)",
                    "in": "header",
                    "name": "Accept-Language",
                    "example": "en",
                    "required": false,
                    "schema": {
                        "type": "string"
                    }
                }
            ],
            "tags": [
                "Initiatives"
            ],
            "responses": {
                "200": {
                    "description": "OK",
                    "content": {
                        "application/json": {
                            "schema": {
                                "type": "object",
                                "description": "Get list gets all initiatives",
                                "properties": {
                                    "data": {
                                        "type": "array",
                                        "items": {
                                            "type": "object",
                                            "properties": {
                                                "id": {
                                                    "type": "number",
                                                    "example": 1
                                                },
                                                "title": {
                                                    "type": "string",
                                                    "example": "SCRUM 101 Course"
                                                },
                                                "description": {
                                                    "type": "string",
                                                    "example": "Description of the course"
                                                },
                                                "created": {
                                                    "type": "string",
                                                    "example": "2021-03-01T10:00:00+00:00"
                                                },
                                                "modified": {
                                                    "type": "string",
                                                    "example": "2021-03-01T10:00:00+00:00"
                                                },
                                                "tags_list": {
                                                    "type": "array",
                                                    "items": {
                                                        "type": "string",
                                                        "example": "Agile methodologies"
                                                    }
                                                }
                                            }
                                        }
                                    }
                                }
                            }
                        }
                    }
                }
            },
            "security": [
                {
                    "bearerAuth": []
                }
            ]
        },
        "post": {
            "operationId": 2,
            "summary": "",
            "description": "Add new seller token forbidden exception",
            "parameters": [
                {
                    "description": "Language letter code (depending on setup: en, es, de, ar, eng, spa, es_AR, en_US)",
                    "in": "header",
                    "name": "Accept-Language",
                    "example": "en",
                    "required": false,
                    "schema": {
                        "type": "string"
                    }
                },
                {
                    "description": "Auth token",
                    "in": "header",
                    "name": "Authentication",
                    "example": "Bearer ****************",
                    "required": true,
                    "schema": {
                        "type": "string"
                    }
                }
            ],
            "tags": [
                "Initiatives"
            ],
            "responses": {
                "403": {
                    "description": "Forbidden",
                    "content": {
                        "application/json": {
                            "schema": {
                                "type": "object",
                                "description": "Add new seller token forbidden exception",
                                "properties": {
                                    "error": {
                                        "type": "string",
                                        "example": "Forbidden"
                                    },
                                    "code": {
                                        "type": "number",
                                        "example": 403
                                    }
                                }
                            }
                        }
                    }
                },
                "400": {
                    "description": "Bad Request",
                    "content": {
                        "application/json": {
                            "schema": {
                                "type": "object",
                                "description": "Add new empty initiative exception",
                                "properties": {
                                    "error": {
                                        "type": "string",
                                        "example": "Validation error"
                                    },
                                    "code": {
                                        "type": "number",
                                        "example": 400
                                    },
                                    "error_fields": {
                                        "type": "object",
                                        "properties": {
                                            "title": {
                                                "type": "object",
                                                "properties": {
                                                    "_empty": {
                                                        "type": "string",
                                                        "example": "This field cannot be left empty"
                                                    }
                                                }
                                            }
                                        }
                                    }
                                }
                            }
                        }
                    }
                },
                "200": {
                    "description": "OK",
                    "content": {
                        "application/json": {
                            "schema": {
                                "type": "object",
                                "description": "Add new creates new initiative",
                                "properties": {
                                    "data": {
                                        "type": "object",
                                        "properties": {
                                            "id": {
                                                "type": "number",
                                                "example": 4
                                            },
                                            "title": {
                                                "type": "string",
                                                "example": "How to manage"
                                            },
                                            "description": {
                                                "type": "string",
                                                "example": "description example"
                                            },
                                            "created": {
                                                "type": "string",
                                                "example": "2024-07-01T14:53:12+00:00"
                                            },
                                            "modified": {
                                                "type": "string",
                                                "example": "2024-07-01T14:53:12+00:00"
                                            },
                                            "tags_list": {
                                                "type": "array",
                                                "items": {
                                                    "type": "string",
                                                    "example": "Management"
                                                }
                                            }
                                        }
                                    }
                                }
                            }
                        }
                    }
                }
            },
            "requestBody": {
                "description": "",
                "content": {
                    "application/json": {
                        "schema": {
                            "type": "object",
                            "description": "Add new creates new initiative",
                            "properties": {
                                "title": {
                                    "type": "string",
                                    "example": "How to manage"
                                },
                                "description": {
                                    "type": "string",
                                    "example": "description example"
                                },
                                "tags_list": {
                                    "type": "array",
                                    "items": {
                                        "type": "string",
                                        "example": "Management"
                                    }
                                }
                            }
                        }
                    }
                }
            }
        }
    },
    "/initiatives/{entity_id}": {
        "patch": {
            "operationId": 3,
            "summary": "",
            "description": "Edit edits initiative",
            "parameters": [
                {
                    "description": "",
                    "in": "path",
                    "name": "entity_id",
                    "required": true,
                    "schema": {
                        "type": "integer"
                    }
                },
                {
                    "description": "Auth token",
                    "in": "header",
                    "name": "Authentication",
                    "example": "Bearer ****************",
                    "required": true,
                    "schema": {
                        "type": "string"
                    }
                },
                {
                    "description": "Language letter code (depending on setup: en, es, de, ar, eng, spa, es_AR, en_US)",
                    "in": "header",
                    "name": "Accept-Language",
                    "example": "en",
                    "required": false,
                    "schema": {
                        "type": "string"
                    }
                }
            ],
            "tags": [
                "Initiatives"
            ],
            "responses": {
                "200": {
                    "description": "OK",
                    "content": {
                        "application/json": {
                            "schema": {
                                "type": "object",
                                "description": "Edit edits initiative",
                                "properties": {
                                    "data": {
                                        "type": "object",
                                        "properties": {
                                            "id": {
                                                "type": "number",
                                                "example": 1
                                            },
                                            "title": {
                                                "type": "string",
                                                "example": "Do you communicate with your employees"
                                            },
                                            "description": {
                                                "type": "string",
                                                "example": "Description of the course"
                                            },
                                            "created": {
                                                "type": "string",
                                                "example": "2021-03-01T10:00:00+00:00"
                                            },
                                            "modified": {
                                                "type": "string",
                                                "example": "2024-07-01T14:53:12+00:00"
                                            },
                                            "tags_list": {
                                                "type": "array",
                                                "items": {
                                                    "type": "string",
                                                    "example": "HR"
                                                }
                                            }
                                        }
                                    }
                                }
                            }
                        }
                    }
                },
                "400": {
                    "description": "Bad Request",
                    "content": {
                        "application/json": {
                            "schema": {
                                "type": "object",
                                "description": "Patch should throw bad request exception when no body provided",
                                "properties": {
                                    "error": {
                                        "type": "string",
                                        "example": "Bad Request"
                                    },
                                    "code": {
                                        "type": "number",
                                        "example": 400
                                    }
                                }
                            }
                        }
                    }
                }
            },
            "security": [
                {
                    "bearerAuth": []
                }
            ],
            "requestBody": {
                "description": "",
                "content": {
                    "application/json": {
                        "schema": {
                            "type": "object",
                            "description": "Edit edits initiative",
                            "properties": {
                                "title": {
                                    "type": "string",
                                    "example": "Do you communicate with your employees"
                                },
                                "tags_list": {
                                    "type": "array",
                                    "items": {
                                        "type": "string",
                                        "example": "HR"
                                    }
                                }
                            }
                        }
                    }
                }
            }
        },
        "delete": {
            "operationId": 4,
            "summary": "",
            "description": "Delete deletes initiatives",
            "parameters": [
                {
                    "description": "",
                    "in": "path",
                    "name": "entity_id",
                    "required": true,
                    "schema": {
                        "type": "integer"
                    }
                },
                {
                    "description": "Auth token",
                    "in": "header",
                    "name": "Authentication",
                    "example": "Bearer ****************",
                    "required": true,
                    "schema": {
                        "type": "string"
                    }
                },
                {
                    "description": "Language letter code (depending on setup: en, es, de, ar, eng, spa, es_AR, en_US)",
                    "in": "header",
                    "name": "Accept-Language",
                    "example": "en",
                    "required": false,
                    "schema": {
                        "type": "string"
                    }
                }
            ],
            "tags": [
                "Initiatives"
            ],
            "responses": {
                "204": {
                    "description": "No content. Successfully deleted."
                },
                "400": {
                    "description": "Bad Request",
                    "content": {
                        "application/json": {
                            "schema": {
                                "type": "object",
                                "description": "Delete should throw bad request exception when no id provided",
                                "properties": {
                                    "error": {
                                        "type": "string",
                                        "example": "Bad Request"
                                    },
                                    "code": {
                                        "type": "number",
                                        "example": 400
                                    }
                                }
                            }
                        }
                    }
                }
            },
            "security": [
                {
                    "bearerAuth": []
                }
            ]
        }
    }
}
