{
    "/users/{userID}/job_recommendations/": {
        "get": {
            "operationId": 1,
            "summary": "",
            "description": "Get list gets all job recommendations by user",
            "parameters": [
                {
                    "description": "",
                    "in": "path",
                    "name": "userID",
                    "required": true,
                    "schema": {
                        "type": "integer"
                    }
                },
                {
                    "description": "Auth token",
                    "in": "header",
                    "name": "Authentication",
                    "example": "Bearer ****************",
                    "required": true,
                    "schema": {
                        "type": "string"
                    }
                },
                {
                    "description": "Language letter code (depending on setup: en, es, de, ar, eng, spa, es_AR, en_US)",
                    "in": "header",
                    "name": "Accept-Language",
                    "example": "en",
                    "required": false,
                    "schema": {
                        "type": "string"
                    }
                }
            ],
            "tags": [
                "JobRecommendations"
            ],
            "responses": {
                "200": {
                    "description": "OK",
                    "content": {
                        "application/json": {
                            "schema": {
                                "type": "object",
                                "description": "Get list gets all job recommendations by user",
                                "properties": {
                                    "data": {
                                        "type": "array",
                                        "items": {
                                            "type": "object",
                                            "properties": {
                                                "id": {
                                                    "type": "number",
                                                    "example": 1
                                                },
                                                "user_id": {
                                                    "type": "number",
                                                    "example": 3
                                                },
                                                "esco_uri": {
                                                    "type": "string",
                                                    "example": "http://data.europa.eu/esco/occupation/8b6388a4-4904-471b-9331-d3b1211f5525"
                                                },
                                                "rating": {
                                                    "type": "number",
                                                    "example": 3
                                                },
                                                "category": {
                                                    "type": "string",
                                                    "example": "panic"
                                                },
                                                "distance": {
                                                    "type": "number",
                                                    "example": 3
                                                },
                                                "created": {
                                                    "type": "string",
                                                    "example": "2023-10-10T10:00:00+00:00"
                                                },
                                                "modified": {
                                                    "type": "string",
                                                    "example": "2023-10-10T11:00:00+00:00"
                                                }
                                            }
                                        }
                                    }
                                }
                            }
                        }
                    }
                }
            },
            "security": [
                {
                    "bearerAuth": []
                }
            ]
        }
    },
    "/users/{userID}/job_recommendations/{entity_id}": {
        "get": {
            "operationId": 2,
            "summary": "",
            "description": "Get data get recommendation",
            "parameters": [
                {
                    "description": "",
                    "in": "path",
                    "name": "userID",
                    "required": true,
                    "schema": {
                        "type": "integer"
                    }
                },
                {
                    "description": "",
                    "in": "path",
                    "name": "entity_id",
                    "required": true,
                    "schema": {
                        "type": "integer"
                    }
                },
                {
                    "description": "Auth token",
                    "in": "header",
                    "name": "Authentication",
                    "example": "Bearer ****************",
                    "required": true,
                    "schema": {
                        "type": "string"
                    }
                },
                {
                    "description": "Language letter code (depending on setup: en, es, de, ar, eng, spa, es_AR, en_US)",
                    "in": "header",
                    "name": "Accept-Language",
                    "example": "en",
                    "required": false,
                    "schema": {
                        "type": "string"
                    }
                }
            ],
            "tags": [
                "JobRecommendations"
            ],
            "responses": {
                "200": {
                    "description": "OK",
                    "content": {
                        "application/json": {
                            "schema": {
                                "type": "object",
                                "description": "Get data get recommendation",
                                "properties": {
                                    "data": {
                                        "type": "object",
                                        "properties": {
                                            "id": {
                                                "type": "number",
                                                "example": 1
                                            },
                                            "user_id": {
                                                "type": "number",
                                                "example": 3
                                            },
                                            "esco_uri": {
                                                "type": "string",
                                                "example": "http://data.europa.eu/esco/occupation/8b6388a4-4904-471b-9331-d3b1211f5525"
                                            },
                                            "rating": {
                                                "type": "number",
                                                "example": 3
                                            },
                                            "category": {
                                                "type": "string",
                                                "example": "panic"
                                            },
                                            "distance": {
                                                "type": "number",
                                                "example": 3
                                            },
                                            "created": {
                                                "type": "string",
                                                "example": "2023-10-10T10:00:00+00:00"
                                            },
                                            "modified": {
                                                "type": "string",
                                                "example": "2023-10-10T11:00:00+00:00"
                                            }
                                        }
                                    }
                                }
                            }
                        }
                    }
                }
            },
            "security": [
                {
                    "bearerAuth": []
                }
            ]
        },
        "patch": {
            "operationId": 3,
            "summary": "",
            "description": "Add new edit review and rating in submission",
            "parameters": [
                {
                    "description": "",
                    "in": "path",
                    "name": "userID",
                    "required": true,
                    "schema": {
                        "type": "integer"
                    }
                },
                {
                    "description": "",
                    "in": "path",
                    "name": "entity_id",
                    "required": true,
                    "schema": {
                        "type": "integer"
                    }
                },
                {
                    "description": "Auth token",
                    "in": "header",
                    "name": "Authentication",
                    "example": "Bearer ****************",
                    "required": true,
                    "schema": {
                        "type": "string"
                    }
                },
                {
                    "description": "Language letter code (depending on setup: en, es, de, ar, eng, spa, es_AR, en_US)",
                    "in": "header",
                    "name": "Accept-Language",
                    "example": "en",
                    "required": false,
                    "schema": {
                        "type": "string"
                    }
                }
            ],
            "tags": [
                "JobRecommendations"
            ],
            "responses": {
                "200": {
                    "description": "OK",
                    "content": {
                        "application/json": {
                            "schema": {
                                "type": "object",
                                "description": "Add new edit review and rating in submission",
                                "properties": {
                                    "data": {
                                        "type": "object",
                                        "properties": {
                                            "id": {
                                                "type": "number",
                                                "example": 1
                                            },
                                            "user_id": {
                                                "type": "number",
                                                "example": 3
                                            },
                                            "esco_uri": {
                                                "type": "string",
                                                "example": "http://data.europa.eu/esco/occupation/8b6388a4-4904-471b-9331-d3b1211f5525"
                                            },
                                            "rating": {
                                                "type": "number",
                                                "example": 5
                                            },
                                            "category": {
                                                "type": "string",
                                                "example": "learn"
                                            },
                                            "distance": {
                                                "type": "number",
                                                "example": 0.2122
                                            },
                                            "created": {
                                                "type": "string",
                                                "example": "2023-10-10T10:00:00+00:00"
                                            },
                                            "modified": {
                                                "type": "string",
                                                "example": "2024-07-01T14:53:21+00:00"
                                            }
                                        }
                                    }
                                }
                            }
                        }
                    }
                },
                "400": {
                    "description": "Bad Request",
                    "content": {
                        "application/json": {
                            "schema": {
                                "type": "object",
                                "description": "Patch should throw bad request exception when no body provided",
                                "properties": {
                                    "error": {
                                        "type": "string",
                                        "example": "Bad Request"
                                    },
                                    "code": {
                                        "type": "number",
                                        "example": 400
                                    }
                                }
                            }
                        }
                    }
                }
            },
            "security": [
                {
                    "bearerAuth": []
                }
            ],
            "requestBody": {
                "description": "",
                "content": {
                    "application/json": {
                        "schema": {
                            "type": "object",
                            "description": "Add new edit review and rating in submission",
                            "properties": {
                                "esco_uri": {
                                    "type": "string",
                                    "example": "http://data.europa.eu/esco/occupation/8b6388a4-4904-471b-9331-d3b1211f5525"
                                },
                                "rating": {
                                    "type": "number",
                                    "example": 5
                                },
                                "category": {
                                    "type": "string",
                                    "example": "learn"
                                },
                                "distance": {
                                    "type": "number",
                                    "example": 0.2122
                                }
                            }
                        }
                    }
                }
            }
        },
        "delete": {
            "operationId": 4,
            "summary": "",
            "description": "Delete delete review and rating in submission",
            "parameters": [
                {
                    "description": "",
                    "in": "path",
                    "name": "userID",
                    "required": true,
                    "schema": {
                        "type": "integer"
                    }
                },
                {
                    "description": "",
                    "in": "path",
                    "name": "entity_id",
                    "required": true,
                    "schema": {
                        "type": "integer"
                    }
                },
                {
                    "description": "Auth token",
                    "in": "header",
                    "name": "Authentication",
                    "example": "Bearer ****************",
                    "required": true,
                    "schema": {
                        "type": "string"
                    }
                },
                {
                    "description": "Language letter code (depending on setup: en, es, de, ar, eng, spa, es_AR, en_US)",
                    "in": "header",
                    "name": "Accept-Language",
                    "example": "en",
                    "required": false,
                    "schema": {
                        "type": "string"
                    }
                }
            ],
            "tags": [
                "JobRecommendations"
            ],
            "responses": {
                "204": {
                    "description": "No content. Successfully deleted."
                },
                "400": {
                    "description": "Bad Request",
                    "content": {
                        "application/json": {
                            "schema": {
                                "type": "object",
                                "description": "Delete should throw bad request exception when no id provided",
                                "properties": {
                                    "error": {
                                        "type": "string",
                                        "example": "Bad Request"
                                    },
                                    "code": {
                                        "type": "number",
                                        "example": 400
                                    }
                                }
                            }
                        }
                    }
                }
            },
            "security": [
                {
                    "bearerAuth": []
                }
            ]
        }
    }
}
